<svg width="70" height="77" viewBox="0 0 70 77" fill="none" xmlns="http://www.w3.org/2000/svg">
<path d="M11.3327 38.0525L2.30566 28.7912L3.64752 27.5017L6.33124 25.0398L27.313 6.1657L30.4847 3.23493L31.8265 2.06262L67.6907 38.6386L38.1698 65.3672L30.3627 57.5127L27.191 54.2303L23.2874 50.1272" stroke="white" stroke-width="2" stroke-miterlimit="10"/>
<path d="M15.3584 31.6048L33.0465 15.6614" stroke="white" stroke-width="2" stroke-miterlimit="10"/>
<path d="M27.1914 35.0045L40.366 23.047" stroke="white" stroke-width="2" stroke-miterlimit="10"/>
<path d="M33.7773 43.0935L47.8058 30.4326" stroke="white" stroke-width="2" stroke-miterlimit="10"/>
<path d="M37.4385 53.8786L55.1266 37.818" stroke="white" stroke-width="2" stroke-miterlimit="10"/>
<path d="M29.5086 76.1526V68.6498H2.06152V76.1526" stroke="white" stroke-width="2" stroke-miterlimit="10"/>
<path d="M4.86719 68.4219V46.1414C4.86719 46.1414 5.13583 40.3995 11.8451 38.1721" stroke="white" stroke-width="2" stroke-miterlimit="10"/>
<path d="M10.7227 51.1823L23.0433 39.4592C23.0433 39.4592 25.1171 37.818 26.703 40.866C28.1668 44.0312 26.581 46.7275 24.6292 48.7204C22.6774 50.7134 20.4816 52.7063 20.4816 52.7063C20.4816 52.7063 23.2873 58.5678 19.6277 62.6709" stroke="white" stroke-width="2" stroke-miterlimit="10"/>
<path d="M30.3624 57.63C30.3624 57.63 30.3624 56.6921 30.3624 58.9195C30.3624 61.1469 29.0205 62.9053 26.2148 65.4844V68.4751" stroke="white" stroke-width="2" stroke-miterlimit="10"/>
<path d="M6.08691 73.4562H10.7224" stroke="white" stroke-width="2" stroke-miterlimit="10"/>
</svg>
