<svg width="515" height="323" viewBox="0 0 515 323" fill="none" xmlns="http://www.w3.org/2000/svg">
<g filter="url(#filter0_d)">
<path d="M43.5889 12.5483C44.4404 11.8683 45.6324 11.3583 46.8244 11.3583C103.36 10.5083 95.8673 9.82832 158.533 8.12836C159.895 8.12836 161.428 8.63835 162.45 9.82832C163.301 10.8483 163.642 12.3783 163.642 13.7382C164.834 24.1081 165.004 34.6479 164.323 45.0177C164.153 47.5676 158.874 48.4176 157.341 48.5876C142.015 49.9476 107.447 51.8175 107.447 51.8175C107.447 51.8175 96.889 63.0373 91.2695 68.3072C91.6101 63.0373 92.1209 57.7674 92.4615 52.4975C63.3423 52.8375 74.9219 53.6875 49.2084 52.4975C48.357 52.4975 47.5055 52.3275 46.8244 51.8175C45.9729 51.1375 45.6324 49.9476 45.2918 48.9276C43.9295 43.1477 42.0563 26.318 41.886 23.2581C41.7158 20.1981 40.3535 15.2682 43.5889 12.5483Z" fill="#3FACA6"/>
</g>
<path d="M57.2134 38.3878V21.7281H61.4706V28.018L66.9198 21.7281H72.0284L65.5575 29.3779L73.2204 38.3878H67.9415L61.4706 30.9079V38.3878H57.2134Z" fill="white"/>
<path d="M74.5825 38.2178V34.8179C74.7528 34.9879 75.0934 34.9879 75.434 34.9879C76.1151 34.9879 76.4557 34.6479 76.7963 33.7979C76.9665 32.9479 77.1368 31.588 77.1368 29.548V26.3181H88.2055V38.3878H83.9483V29.718H81.0535C81.0535 31.248 81.0535 32.4379 80.8832 33.1179C80.7129 34.6479 80.3723 36.0079 79.5209 37.0279C78.8397 38.0478 77.6477 38.5578 76.2854 38.5578C75.6042 38.5578 75.0934 38.3878 74.5825 38.2178Z" fill="white"/>
<path d="M91.7812 38.3878V26.3181H95.8682V32.2679L100.296 26.3181H104.212V38.3878H100.125V32.4379L95.6979 38.3878H91.7812Z" fill="white"/>
<path d="M108.98 37.0278C107.618 35.8378 107.107 34.3079 107.107 32.4379C107.107 30.5679 107.788 29.208 108.81 27.848C109.832 26.488 111.534 25.978 113.408 25.978C115.11 25.978 116.473 26.658 117.665 27.848C118.687 29.038 119.368 30.5679 119.368 32.4379V33.4579H111.194C111.534 34.6479 113.067 35.3279 114.77 35.3279C116.132 35.3279 117.324 34.9879 118.687 34.3079V37.5378C117.494 38.3878 115.962 38.7278 113.918 38.7278C111.875 38.7278 110.172 38.0478 108.98 37.0278ZM115.11 31.0779C115.11 29.888 114.259 29.038 113.237 29.038C112.045 29.038 111.364 29.888 111.194 31.0779H115.11Z" fill="white"/>
<path d="M122.093 38.3878V26.3181H126.35V30.568H130.096V26.3181H134.354V38.3878H130.096V33.9679H126.35V38.3878H122.093Z" fill="white"/>
<path d="M139.973 38.3878V29.718H136.396V26.3181H147.635V29.718H144.059V38.3878H139.973Z" fill="white"/>
<path d="M43.2494 12.8882C43.7602 12.8882 44.1008 13.0582 43.9305 13.2282C43.9305 13.5682 43.4197 13.9082 42.9088 15.4382C42.7385 16.1182 42.5682 17.1382 42.7385 18.4981C42.7385 19.8581 43.0791 21.7281 43.2494 23.938C43.59 28.188 44.2711 33.9678 45.4631 41.6177C45.8037 43.3177 45.974 45.0176 46.3146 46.8876C46.4849 47.7376 46.6551 48.5876 46.9957 49.4375C47.166 49.7775 47.3363 50.1175 47.5066 50.4575C47.6769 50.6275 47.8472 50.7975 48.1877 50.9675C48.358 50.9675 48.6986 51.1375 49.2095 51.1375C49.7203 51.1375 50.2312 51.1375 50.742 51.1375C51.7638 51.1375 52.9558 51.3075 53.9775 51.3075C56.1913 51.4775 58.5753 51.4775 60.9593 51.6475C63.3433 51.6475 65.7274 51.8175 68.2817 51.8175C70.836 51.8175 73.3903 51.6475 75.9446 51.6475C78.6693 51.6475 81.2236 51.4775 84.1185 51.4775C87.3539 51.4775 90.7597 51.4775 93.9952 51.3075C93.314 60.1473 92.8031 66.9472 92.9734 64.9072C93.9952 63.8873 95.0169 62.6973 96.2089 61.6773L99.6147 58.1074C101.999 55.5574 104.383 53.0075 106.767 50.4575C122.604 49.4375 137.759 48.4176 151.382 47.5676C153.085 47.3976 154.958 47.3976 156.661 47.2276C158.364 47.0576 159.897 46.7176 161.429 46.2076C162.11 45.8676 162.791 45.5276 162.962 45.1876C163.132 45.1876 163.132 43.9976 163.132 43.1477C163.302 41.4477 163.302 39.5777 163.302 37.8778C163.473 30.7379 163.302 23.598 162.621 16.4582C162.451 14.7582 162.451 12.7182 161.94 11.5283C161.429 10.3383 159.897 9.48831 158.534 9.48831C154.958 9.48831 151.382 9.6583 147.806 9.6583C140.654 9.8283 133.672 9.9983 126.861 10.1683C113.238 10.5083 100.296 11.0183 88.7162 11.3583C77.3069 11.5283 66.9194 11.8683 58.7456 12.0383C55.3398 12.0383 52.6152 12.2083 50.5718 12.2083C49.55 12.2083 48.6986 12.2083 48.0174 12.2083C47.6769 12.2083 47.3363 12.2083 46.9957 12.2083C46.6551 12.2083 46.4849 12.2083 46.3146 12.2083C45.2928 12.3783 44.9523 12.5482 44.4414 12.7182C44.1008 12.7182 43.9305 12.7182 43.59 12.5482C43.2494 12.3783 43.2494 12.2083 43.59 11.8683C43.9305 11.5283 44.6117 10.8483 46.3146 10.5083C49.2095 10.3383 54.1478 10.1683 62.8325 10.1683C70.6657 9.9983 80.5424 9.8283 91.9517 9.48831C103.191 8.80832 115.962 8.46833 129.415 7.78834C136.227 7.61834 143.038 7.27835 150.02 7.10835C151.723 7.10835 153.596 6.93835 155.299 6.93835H157.853H158.534C158.875 6.93835 159.045 6.93835 159.386 6.93835C159.897 6.93835 160.407 7.10835 160.918 7.27835C161.94 7.61834 162.791 8.29833 163.643 9.31831C164.324 10.3383 164.665 11.3583 164.835 12.3783C165.175 14.2482 165.175 15.9482 165.346 17.8181C166.027 24.958 166.197 31.9279 166.027 38.8977C166.027 40.5977 165.857 42.2977 165.857 44.1676V44.8476C165.857 45.0176 165.857 45.1876 165.686 45.6976C165.516 46.3776 165.175 47.0576 164.665 47.5676C163.813 48.4176 162.791 48.9276 161.94 49.2675C160.237 49.9475 158.364 50.2875 156.661 50.4575C154.958 50.6275 153.255 50.6275 151.723 50.7975C143.889 51.3075 136.056 51.8175 128.734 52.3275C121.582 52.8375 114.6 53.1775 108.129 53.5175C105.745 55.8974 103.531 58.2774 101.318 60.6573C100.126 61.8473 98.9335 63.0373 97.7415 64.2273C96.3792 65.5872 95.0169 66.7772 93.6546 68.1372C92.6329 69.1572 91.6111 70.0072 90.5894 71.0271C89.9082 72.0471 90.2488 70.6871 90.2488 70.1772L90.4191 68.1372C90.5894 66.0972 90.7597 64.2273 90.93 62.1873C91.1003 59.4674 91.4408 56.7474 91.6111 54.0275C89.738 54.0275 88.0351 54.0275 86.1619 54.0275C84.1185 54.0275 82.075 54.0275 80.0316 54.0275C75.9446 54.1975 72.1983 54.1975 68.2817 54.1975C64.3651 54.1975 60.4485 54.0275 56.7021 53.8575C54.829 53.6875 52.9558 53.6875 51.0826 53.6875C50.0609 53.6875 49.2095 53.6875 48.1877 53.5175C47.166 53.3475 45.974 52.8375 45.4631 51.8175C44.9523 50.9675 44.782 49.9475 44.4414 49.0975C44.4414 47.7376 44.2711 46.8876 44.1008 46.0376C43.7602 44.3376 43.59 42.6377 43.2494 41.1077C42.7385 37.8778 42.3979 34.8178 42.0574 31.9279C41.7168 29.0379 41.5465 26.488 41.3762 24.108C41.3762 21.7281 41.0356 19.8581 41.0356 17.9881C41.0356 16.2882 41.5465 14.7582 42.0574 13.9082C42.5682 13.2282 43.2494 12.8882 43.2494 12.8882Z" fill="white"/>
<g filter="url(#filter1_d)">
<path d="M268.373 9.4179C269.224 8.56792 270.416 8.05793 271.608 8.05793C328.314 7.37794 389.958 6.52796 452.794 4.99799C454.157 4.99799 455.689 5.50798 456.711 6.69795C457.562 7.71793 457.903 9.2479 458.073 10.6079C459.265 20.9777 459.436 31.5175 458.754 41.8873C458.584 44.4372 458.244 42.9073 456.2 44.2672C455.008 45.1172 453.475 45.4572 451.943 45.4572C425.889 45.9672 400.516 48.1772 373.44 49.1971C368.332 54.977 362.882 60.4169 357.263 65.6868C357.603 60.4169 358.114 55.147 358.455 49.8771C328.825 50.0471 301.579 51.2371 275.865 50.0471C275.014 50.0471 274.162 49.8771 273.481 49.3671C272.63 48.6872 272.289 47.4972 271.949 46.4772C270.586 40.6973 266.84 23.1876 266.67 20.1277C266.499 17.0678 265.137 12.1379 268.373 9.4179Z" fill="#25AEA7"/>
</g>
<path d="M281.826 35.0875V18.4278H286.083V24.7177L291.532 18.4278H296.641L290.17 26.0776L297.833 35.0875H292.554L286.083 27.6076V35.0875H281.826Z" fill="white"/>
<path d="M304.985 35.4275C302.941 35.4275 301.409 34.7475 300.047 33.5575C298.684 32.3676 298.173 30.8376 298.173 29.1376C298.173 27.2676 298.854 25.9077 300.047 24.5477C301.409 23.3577 302.941 22.6777 304.985 22.6777C307.028 22.6777 308.561 23.3577 309.923 24.5477C311.115 25.7377 311.796 27.2676 311.796 29.1376C311.796 31.0076 311.115 32.5375 309.923 33.7275C308.561 34.9175 306.858 35.4275 304.985 35.4275ZM304.985 26.2477C303.452 26.2477 302.26 27.4376 302.26 28.9676C302.26 30.4976 303.452 31.6876 304.985 31.6876C306.517 31.6876 307.709 30.4976 307.709 28.9676C307.539 27.6076 306.517 26.2477 304.985 26.2477Z" fill="white"/>
<path d="M314.521 35.0875V23.0177H318.608V27.2676H322.354V23.0177H326.611V35.0875H322.354V30.6676H318.608V35.0875H314.521Z" fill="white"/>
<path d="M331.379 33.7276C330.017 32.5376 329.336 31.0076 329.336 29.1377C329.336 27.2677 330.017 25.5677 331.379 24.5477C332.742 23.3578 334.274 22.8478 336.147 22.8478C337.51 22.8478 338.702 23.0178 339.723 23.5278V27.0977C338.702 26.7577 337.85 26.4177 336.829 26.4177C334.955 26.4177 333.593 27.4377 333.593 29.1377C333.593 30.8376 334.955 31.8576 336.829 31.8576C338.021 31.8576 339.042 31.6876 339.894 31.1776V34.7476C338.702 35.2575 337.51 35.5975 336.147 35.5975C334.274 35.4275 332.742 34.9175 331.379 33.7276Z" fill="white"/>
<path d="M342.618 39.5074V35.9375C343.3 36.2774 343.81 36.4474 344.492 36.4474C345.513 36.4474 346.194 35.9375 346.705 34.7475L341.597 23.0177H346.024L348.749 30.3276L351.303 23.0177H355.731L350.281 36.2774C349.26 38.6574 347.557 40.0174 345.173 40.0174C344.321 40.0174 343.47 39.8474 342.618 39.5074Z" fill="white"/>
<path d="M356.242 34.9175V31.5175C356.412 31.6875 356.753 31.6875 357.093 31.6875C357.774 31.6875 358.115 31.3475 358.455 30.4976C358.626 29.6476 358.796 28.2876 358.796 26.2476V23.0177H369.865V35.0875H365.608V26.4176H362.713C362.713 27.9476 362.713 29.1376 362.542 29.8176C362.372 31.3475 362.031 32.7075 361.18 33.7275C360.499 34.7475 359.307 35.2575 357.945 35.2575C357.263 35.2575 356.582 35.2575 356.242 34.9175Z" fill="white"/>
<path d="M373.271 35.0875V23.0177H377.528V26.2476H379.741C381.274 26.2476 382.636 26.5876 383.488 27.4376C384.51 28.2876 384.85 29.3076 384.85 30.6676C384.85 31.8575 384.339 32.8775 383.488 33.7275C382.636 34.5775 381.444 34.9175 379.741 34.9175H373.271V35.0875ZM377.528 32.0275H379.06C380.082 32.0275 380.763 31.5175 380.763 30.6676C380.763 29.8176 380.082 29.3076 379.06 29.3076H377.528V32.0275Z" fill="white"/>
<path d="M389.277 35.0875V26.4176H385.701V23.0177H396.94V26.4176H393.535V35.0875H389.277Z" fill="white"/>
<path d="M399.154 34.4076C398.303 33.7276 397.962 32.7076 397.962 31.5176C397.962 28.7977 400.517 27.6077 402.73 27.6077C403.922 27.6077 404.944 27.7777 405.796 28.2877V28.1177C405.796 27.2677 405.455 26.7577 404.774 26.4177C404.093 26.2477 403.752 26.0777 402.901 26.0777C401.709 26.0777 400.517 26.4177 399.325 26.9277V23.6978C400.517 23.0178 402.049 22.8478 403.922 22.8478C405.796 22.8478 407.158 23.3578 408.18 24.2078C409.201 25.0577 409.883 26.2477 409.883 27.7777V31.5176C409.883 32.0276 410.053 32.1976 410.564 32.1976C410.904 32.1976 411.075 32.1976 411.245 32.0276V35.0875C410.734 35.4275 410.053 35.7675 409.031 35.7675C407.669 35.7675 406.647 35.2575 406.136 34.4076C405.114 35.4275 403.922 35.7675 402.22 35.7675C401.028 35.4275 400.006 35.0875 399.154 34.4076ZM405.796 31.5176V30.3276C405.285 29.9876 404.774 29.8176 404.093 29.8176C403.071 29.8176 402.22 30.3276 402.22 31.3476C402.22 32.1976 402.901 32.7076 403.922 32.7076C404.604 32.5376 405.285 32.1976 405.796 31.5176Z" fill="white"/>
<path d="M414.139 35.0875V23.0177H418.397V27.2676H422.143V23.0177H426.4V35.0875H422.143V30.6676H418.397V35.0875H414.139Z" fill="white"/>
<path d="M432.019 35.0875V26.4176H428.443V23.0177H439.682V26.4176H436.106V35.0875H432.019Z" fill="white"/>
<path d="M267.862 9.75799C268.373 9.75799 268.884 9.75799 268.714 10.098C268.714 10.438 267.862 10.948 267.522 13.1579C267.351 14.1779 267.522 15.7079 267.692 17.7478C267.692 18.2578 267.862 18.7678 267.862 19.4478C267.862 20.1278 267.862 20.4678 268.033 21.1478C268.203 22.3378 268.373 23.6977 268.714 25.2277C269.225 28.2876 270.076 31.6876 270.927 35.7675C271.438 37.8075 271.949 40.0174 272.46 42.2274C272.801 43.4174 272.971 44.6073 273.312 45.7973C273.652 46.9873 273.993 48.0073 274.504 48.3473C274.844 48.5173 275.355 48.6873 275.866 48.6873C276.547 48.6873 277.228 48.6873 277.739 48.6873C279.101 48.6873 280.464 48.8573 281.826 48.8573C284.721 48.8573 287.616 49.0272 290.681 49.0272C296.811 49.1972 303.623 49.1972 310.775 49.0272C325.59 48.8573 342.108 48.5173 359.477 48.3473C359.137 51.9172 358.966 55.4871 358.626 59.2271C358.626 60.247 358.455 61.097 358.455 62.117C359.477 61.097 360.499 60.077 361.691 59.0571C362.883 57.8671 364.075 56.6771 365.097 55.4871L368.502 51.9172L372.249 47.8373C375.654 47.6673 379.06 47.4973 382.466 47.4973C385.701 47.3273 388.767 47.1573 392.002 46.9873C398.303 46.6473 404.603 46.3073 410.734 45.9673C422.994 45.2873 434.915 44.6073 446.154 44.2673C447.346 44.2673 448.538 44.2673 449.9 44.0973C451.262 44.0973 452.284 44.0973 453.306 43.7573C453.817 43.5873 454.327 43.4174 454.668 43.2474L455.519 42.7374C455.86 42.5674 456.201 42.3974 456.711 42.2274L457.052 42.0574V41.3774V40.5274C457.393 35.5975 457.393 30.4976 457.393 25.5677C457.393 20.4678 457.052 15.5379 456.541 10.438C456.371 9.248 456.201 8.05802 455.69 7.54803C455.179 6.86805 454.157 6.35806 453.135 6.18806C452.795 6.18806 452.114 6.18806 451.433 6.18806H449.559H445.813C425.379 6.52805 405.114 6.86805 385.872 7.03804C347.387 7.54803 312.989 8.05803 289.659 8.56802C279.953 8.90801 274.674 9.07801 271.949 8.90801C270.757 8.90801 270.076 9.07801 269.565 9.248C269.054 9.418 268.884 9.418 268.543 9.248C268.203 9.248 268.203 8.90801 268.714 8.39802C268.714 8.22802 269.225 7.88803 269.735 7.54803C270.076 7.37804 270.587 7.37804 270.927 7.20804C271.438 7.20804 271.779 7.20804 272.29 7.03804C276.206 6.86805 283.188 6.69805 295.279 6.52805C317.075 6.18806 351.303 5.50807 389.107 4.82809C408.179 4.48809 428.103 4.1481 448.027 3.80811H451.773H452.625C452.965 3.80811 453.476 3.80811 453.817 3.80811C454.668 3.9781 455.349 4.1481 456.03 4.65809C456.711 4.99808 457.393 5.50807 457.903 6.18806C458.414 6.86805 458.755 7.71803 458.925 8.39802C459.266 9.92799 459.266 11.118 459.436 12.3079C459.947 17.2379 460.288 22.1678 460.288 27.0977C460.458 32.0276 460.288 36.7875 459.947 41.7174C459.947 42.0574 459.947 42.2274 459.947 42.7374C459.947 43.2474 459.777 43.9273 459.436 44.2673C459.095 44.7773 458.585 44.9473 457.903 45.1173H457.733H457.563C457.563 45.1173 457.393 45.1173 457.222 45.2873C457.052 45.4573 456.882 45.4573 456.711 45.6273C456.371 45.7973 456.03 45.9673 455.69 46.1373C455.009 46.4773 454.327 46.6473 453.646 46.8173C452.965 46.9873 452.284 46.9873 451.603 46.9873H449.9C448.708 46.9873 447.516 46.9873 446.324 47.1573C433.212 47.4973 420.44 48.3473 408.179 48.8573C402.049 49.1972 396.089 49.5372 390.129 49.7072C387.234 49.8772 384.339 49.8772 381.444 50.0472C378.72 50.2172 375.995 50.2172 373.441 50.3872C372.419 51.5772 371.397 52.5972 370.376 53.7872C369.184 54.9771 367.992 56.1671 366.8 57.3571C365.607 58.5471 364.415 59.737 363.223 60.927C361.861 62.117 360.669 63.477 359.477 64.667C358.455 65.6869 357.434 66.5369 356.412 67.5569L355.731 68.2369C355.561 68.4069 355.561 68.2369 355.561 68.0669V67.5569L355.731 65.5169C355.901 63.477 356.071 61.437 356.242 59.3971C356.412 56.5071 356.753 53.7872 356.923 51.0672C350.452 51.0672 344.151 51.2372 338.021 51.2372C331.55 51.2372 325.249 51.4072 319.289 51.4072C308.391 51.2372 297.492 51.2372 287.275 51.0672C284.721 51.0672 282.166 50.8972 279.782 50.8972C278.59 50.8972 277.398 50.7272 276.206 50.7272C275.014 50.7272 273.482 50.5572 272.46 49.3672C271.438 48.1773 271.268 46.9873 271.098 45.9673C270.927 44.7773 270.587 43.7573 270.417 42.7374C269.906 40.6974 269.565 38.4874 269.054 36.6175C267.522 28.6276 266.159 21.9978 265.989 17.2379C265.649 14.8579 265.819 12.8179 266.5 11.458C267.011 10.268 267.692 9.75799 267.862 9.75799Z" fill="white"/>
<path d="M273.843 246.477C272.006 245.859 270 245.23 268.173 244.442C267.006 244.033 266.486 244.173 266.416 245.361C266.316 247.058 266.215 248.755 266.125 250.282C265.944 253.337 263.746 255.933 260.971 256.792C256.987 257.921 253.163 259.23 249.18 260.359C244.677 261.628 240.194 262.557 235.701 263.656C233.275 264.366 230.839 265.245 228.423 265.784C225.657 266.474 223.031 267.682 219.957 267.843C215.694 267.934 213.618 265.598 212.122 262.105C211.374 260.358 211.374 260.358 210.106 261.646C208.478 263.254 207.02 264.871 204.923 265.77C201.079 267.418 197.166 267.359 193.553 265.104C192.405 264.356 191.217 264.286 189.989 264.895C186.834 266.414 183.939 266.414 181.015 264.029C179.717 262.932 178.22 262.333 176.143 262.893C173.707 263.772 168.777 260.758 167.57 258.133C166.672 256.037 168.001 253.731 170.397 253.531C174.85 253.11 178.384 250.933 181.47 247.708C184.387 244.473 187.143 241.059 190.528 238.532C193.384 236.316 197.188 235.346 200.932 235.395C202.809 235.335 202.799 235.505 202.75 233.458C202.81 232.44 202.361 231.392 202.581 230.554C203.231 228.208 204.689 226.59 207.285 225.891C210.739 225.071 213.884 223.723 217.349 222.734C221.692 221.285 225.875 219.657 230.518 218.907C232.924 218.537 235.21 217.309 237.626 216.769C242.459 215.69 247.45 214.79 252.462 213.551C254.359 213.152 256.056 213.251 258.063 213.879C260.239 214.518 261.526 215.785 262.613 217.552C263.701 219.318 264.529 219.707 266.127 218.609C267.016 217.98 267.695 218.02 268.553 217.9C272.357 216.93 276.101 216.979 279.754 218.556C281.081 219.144 282.629 218.894 283.956 219.483C287.789 220.899 291.753 220.11 295.536 219.48C297.084 219.23 298.342 218.112 299.73 217.682C300.249 217.542 300.938 217.412 301.267 217.602C303.553 219.268 304.35 223.061 303.171 225.717C302.392 227.374 301.283 228.842 299.855 229.95C298.607 230.899 297.508 232.197 296.888 234.034C294.89 239.025 289.887 242.989 283.937 242.811C282.749 242.742 281.511 243.521 280.622 244.15C278.675 245.398 276.568 246.467 273.843 246.477ZM237.326 244.849C239.851 245.338 241.3 243.89 242.917 242.452C245.793 239.896 248.49 237.5 251.206 234.764C254.282 231.709 257.368 228.484 260.284 225.249C262.661 222.493 259.738 217.213 257.223 216.555C255.376 216.106 253.37 215.478 251.293 216.037C249.386 216.607 247.32 216.997 245.253 217.386C241.629 218.196 237.995 219.175 234.54 219.994C232.124 220.534 229.698 221.243 227.272 221.953C223.628 223.102 219.814 224.241 216.17 225.389C213.913 226.109 211.817 227.008 209.57 227.557C206.625 228.406 205.536 229.535 205.695 232.609C205.784 233.977 206.213 235.364 206.642 236.752C207.469 240.035 208.447 240.774 212.011 240.983C216.074 241.391 220.137 241.799 224.359 242.387C228.582 242.975 232.954 243.912 237.326 244.849ZM214.396 243.847C212.868 243.757 211.521 243.508 209.993 243.419C208.805 243.349 208.116 243.479 208.705 245.046C210.011 248.869 211.138 252.852 212.614 256.684C213.331 258.94 214.399 261.046 215.646 262.992C216.105 263.871 217.063 264.949 217.911 264.998C220.117 265.127 222.493 265.267 224.74 264.717C229.063 263.608 233.076 261.97 237.4 260.861C244.498 258.892 251.567 257.433 258.516 255.116C262.509 253.817 263.348 254.036 263.49 248.766C263.521 245.362 263.562 241.788 263.594 238.384C263.624 237.875 263.304 237.516 263.335 237.007C262.956 234.771 262.747 232.545 262.369 230.309C262.229 229.79 262.09 229.271 261.94 228.922C261.421 229.061 260.732 229.191 260.373 229.511C258.935 230.789 257.836 232.087 256.398 233.365C252.443 236.88 248.329 240.215 244.694 244.089C242.516 246.345 239.85 248.233 236.157 247.335C234.31 246.886 232.264 246.937 230.597 246.328C225.416 244.663 219.806 244.504 214.396 243.847ZM273.414 219.206C271.178 219.586 268.942 219.966 266.705 220.346C265.328 220.606 264.239 221.734 264.149 223.261C264.058 224.788 263.968 226.316 264.386 227.873C265.084 230.468 265.263 233.203 265.441 235.938C265.64 238.334 265.469 241.219 268.304 242.236C271.298 243.433 274.343 243.782 277.618 243.122C278.826 242.852 279.785 241.035 279.326 240.157C279.017 239.628 278.877 239.109 278.568 238.58C279.257 238.45 279.946 238.32 280.624 238.36C281.463 238.579 282.271 239.308 283.11 239.527C283.779 239.737 284.767 240.305 285.466 240.006C288.75 239.176 291.746 237.479 293.634 234.354C294.023 233.525 294.233 232.856 292.706 232.767C291.688 232.707 290.69 232.308 289.691 231.909C289.362 231.72 289.223 231.201 288.913 230.672C289.263 230.522 289.622 230.202 289.962 230.222C291.818 230.501 293.546 230.091 295.123 229.332C296.172 228.883 296.911 227.905 297.969 227.285C300.256 226.057 301.374 224.42 301.196 221.685C301.127 219.978 300.638 219.608 298.91 220.018C297.523 220.448 296.125 221.047 294.567 221.467C290.264 222.236 286.032 221.818 281.829 220.891C278.944 220.722 276.269 219.884 273.414 219.206ZM198.525 264.544C202.957 264.463 206.432 263.304 208.849 259.87C209.408 259.051 209.828 257.713 209.719 256.685C209.629 255.318 208.861 253.91 208.432 252.523C207.286 248.88 205.969 245.227 205.003 241.424C204.155 238.479 203.846 237.95 200.781 237.941C200.442 237.921 200.102 237.901 199.593 237.871C196.868 237.882 194.442 238.591 192.315 239.999C189.299 242.036 186.932 244.622 184.725 247.388C181.599 251.292 178.343 254.507 173.181 255.397C172.153 255.507 171.264 256.136 170.376 256.765C170.016 257.084 172.571 259.959 173.579 260.188C173.918 260.208 174.088 260.218 174.427 260.238C177.801 260.776 180.597 259.577 183.253 257.86C184.312 257.241 185.38 256.452 186.449 255.663C186.628 255.503 187.138 255.533 187.487 255.383C187.467 255.723 187.776 256.251 187.596 256.411C186.498 257.709 185.399 259.007 184.131 260.295C183.761 260.784 183.402 261.104 182.863 261.583C183.352 261.952 183.82 262.661 184.489 262.87C185.497 263.1 186.516 263.159 187.544 263.049C190.469 262.54 193.095 261.331 194.474 258.176C194.664 257.847 195.183 257.707 195.542 257.387C195.692 257.737 195.842 258.086 195.822 258.426C195.761 259.444 195.701 260.462 195.311 261.291C194.902 262.459 195.211 262.988 196.209 263.387C197.017 264.115 198.025 264.344 198.525 264.544Z" fill="white"/>
<path d="M247.256 278.467C247.056 278.966 246.856 279.465 246.666 279.795C246.347 279.435 246.038 278.906 245.888 278.557C244.303 273.696 246.287 280.454 244.701 275.593C243.983 273.337 243.265 271.081 242.558 268.656C242.408 268.306 242.428 267.967 242.448 267.627C242.648 267.128 242.858 266.459 243.218 266.14C243.916 265.84 244.575 266.219 244.864 267.088C245.831 270.891 246.05 272.947 246.887 276.061C247.007 276.92 247.136 277.608 247.256 278.467Z" fill="white"/>
<path d="M310.469 223.249C310.628 226.324 308.8 228.431 307.142 230.547C306.773 231.037 305.914 231.157 305.225 231.286C304.876 231.436 304.387 231.067 304.057 230.877C304.257 230.378 304.287 229.869 304.647 229.55C307.882 226.674 308.582 223.48 306.957 219.297C306.797 219.118 306.648 218.768 306.658 218.599C306.698 217.92 306.748 217.071 307.108 216.752C307.827 216.113 308.645 216.672 309.114 217.38C310.022 219.307 311.109 221.073 310.469 223.249Z" fill="white"/>
<path d="M171.898 268.434C167.446 268.854 165.041 266.329 163.205 262.816C162.747 261.938 162.807 260.919 163.686 260.46C164.564 260.001 165.213 260.55 165.672 261.428C166.889 263.883 168.655 265.689 171.34 266.358C172.179 266.577 173.027 266.627 173.876 266.676C174.215 266.696 174.395 266.537 174.734 266.556C175.233 266.756 175.722 267.125 176.381 267.504C175.852 267.814 175.462 268.643 174.953 268.613C173.755 268.713 172.747 268.483 171.898 268.434Z" fill="white"/>
<path d="M255.943 272.675C255.933 272.845 255.743 273.174 255.563 273.334C255.384 273.494 254.885 273.294 254.895 273.124C253.498 270.829 251.752 268.683 251.583 265.778C251.603 265.439 251.803 264.94 251.993 264.61C252.233 263.432 252.892 263.812 253.371 264.35C253.68 264.879 253.989 265.408 254.288 266.107C254.847 268.183 255.395 270.429 255.943 272.675Z" fill="white"/>
<path d="M236.155 279.009C233.999 278.031 233.44 275.955 233.222 273.899C233.112 272.87 232.364 271.124 233.572 270.854C235.299 270.444 234.839 272.461 235.118 273.499C236.046 275.086 236.615 276.992 236.155 279.009Z" fill="white"/>
<path d="M235.975 279.168C236.144 279.178 236.314 279.188 236.484 279.198L236.474 279.368C236.314 279.188 236.144 279.178 235.975 279.168Z" fill="white"/>
<path d="M179.265 218.801C178.856 217.074 179.126 215.387 180.075 213.739C181.024 212.092 182.283 210.974 184.01 210.564C185.737 210.154 187.264 210.244 188.742 211.182C190.219 212.12 191.167 213.367 191.575 215.094C191.984 216.821 191.714 218.508 190.765 220.155C189.816 221.803 188.557 222.921 186.83 223.331C185.103 223.74 183.576 223.651 182.098 222.713C180.621 221.775 179.673 220.527 179.265 218.801ZM188.299 218.649C188.859 217.83 188.909 216.981 188.62 216.113C188.331 215.245 187.862 214.536 187.033 214.147C186.215 213.588 185.366 213.538 184.498 213.828C183.629 214.118 182.92 214.587 182.531 215.416C181.971 216.234 181.921 217.083 182.21 217.951C182.499 218.82 182.968 219.528 183.797 219.917C184.615 220.476 185.464 220.526 186.332 220.236C187.201 219.947 187.91 219.477 188.299 218.649Z" fill="white"/>
<path d="M195.436 198.802C196.803 198.712 198.131 199.301 199.259 200.388C200.546 201.656 201.144 203.053 201.213 204.76C201.283 206.467 200.523 207.785 199.425 209.083C197.977 210.531 196.399 211.29 194.542 211.011C192.676 210.901 191.029 209.953 189.253 208.317C186.997 206.141 186.1 204.045 186.41 201.679C186.65 200.501 186.9 199.154 187.649 198.006C188.239 196.678 189.178 195.2 190.297 193.563L192.552 195.738L191.813 196.717L191.074 197.695C190.894 197.855 190.704 198.185 190.504 198.684C189.945 199.502 189.925 199.842 189.545 200.501C189.165 201.16 189.135 201.669 189.095 202.347C189.045 203.196 189.504 204.074 190.132 204.963C189.893 203.246 190.493 201.748 191.761 200.46C192.84 199.502 194.068 198.892 195.436 198.802ZM197.061 202.984C195.774 201.717 194.227 201.967 193.138 203.095C192.229 204.064 191.799 205.571 192.068 206.779C194.004 208.595 195.701 208.694 197.149 207.247C198.418 205.959 198.349 204.252 197.061 202.984Z" fill="white"/>
<path d="M208.797 188.857C210.304 189.285 211.602 190.383 212.54 191.8C213.467 193.387 213.726 194.765 213.456 196.452C213.196 197.969 212.437 199.287 211.029 200.056C209.611 200.995 208.243 201.085 206.736 200.656L209.998 205.956L207.173 207.663L198.473 193.531L201.299 191.823L202.077 193.061C202.167 191.534 203.086 190.395 204.504 189.457C205.753 188.508 207.29 188.428 208.797 188.857ZM203.464 195.526L205.01 198.171C205.998 198.74 207.356 198.819 208.414 198.2C209.123 197.731 209.672 197.082 209.892 196.243C210.112 195.405 209.993 194.546 209.354 193.828C208.895 192.949 208.237 192.57 207.398 192.351C206.56 192.131 205.701 192.251 204.992 192.721C203.944 193.17 203.534 194.338 203.464 195.526Z" fill="white"/>
<path d="M227.614 190.299L228.332 192.555C227.962 193.044 227.433 193.354 226.734 193.653C225.516 194.093 224.508 193.864 223.71 192.965C222.95 194.283 221.872 195.242 220.314 195.662C217.888 196.371 215.732 195.393 215.014 193.137C214.576 191.92 214.806 190.911 215.545 189.933C216.284 188.955 217.173 188.325 218.381 188.056C219.599 187.616 220.797 187.516 221.805 187.745L221.655 187.396C221.227 186.009 220.059 185.6 217.982 186.159C216.764 186.599 215.706 187.218 214.797 188.186L214.099 185.591C215.008 184.623 216.416 183.854 217.973 183.434C219.541 182.845 221.068 182.934 222.236 183.343C223.404 183.752 224.362 184.83 224.79 186.217L225.927 190.03C226.067 190.549 226.396 190.739 226.915 190.599C227.265 190.449 227.444 190.289 227.614 190.299ZM222.363 189.821C221.525 189.602 220.676 189.552 219.808 189.842C218.42 190.272 217.691 191.08 217.98 191.949C218.259 192.987 219.267 193.216 220.485 192.777C221.524 192.497 222.422 191.698 222.642 190.86L222.363 189.821Z" fill="white"/>
<path d="M231.905 192.594L231.08 183.52L227.317 183.811L226.968 181.066L237.76 179.995L238.109 182.74L234.345 183.031L235.17 192.104L231.905 192.594Z" fill="white"/>
<path d="M240.121 191.883L241.504 180.044L244.888 180.413L244.287 184.805L249.188 185.432L249.789 181.04L253.173 181.409L251.791 193.248L248.407 192.879L249.017 188.317L244.116 187.69L243.505 192.252L240.121 191.883Z" fill="white"/>
<path d="M266.126 195.62L265.306 197.956C264.787 198.096 264.108 198.056 263.44 197.847C262.102 197.428 261.473 196.54 261.534 195.521C260.136 196.121 258.768 196.211 257.101 195.602C254.776 194.615 253.539 192.499 254.348 190.332C254.758 189.164 255.657 188.366 256.695 188.086C257.733 187.806 258.921 187.876 260.089 188.285C261.257 188.694 262.235 189.432 263.043 190.161L263.233 189.831C263.823 188.503 263.034 187.435 261.038 186.637C259.87 186.228 258.692 185.989 257.315 186.249L258.324 183.583C259.692 183.493 261.219 183.583 262.716 184.181C264.213 184.78 265.521 185.708 266.139 186.766C266.748 187.993 266.847 189.191 266.427 190.529L265.008 194.363C264.808 194.862 264.948 195.381 265.447 195.58C265.617 195.59 265.956 195.61 266.126 195.62ZM262.254 191.987C261.785 191.279 261.136 190.73 260.128 190.501C258.801 189.912 257.762 190.192 257.363 191.19C256.963 192.188 257.601 192.907 258.769 193.316C259.937 193.725 260.796 193.605 261.674 193.146L262.254 191.987Z" fill="white"/>
<path d="M265.456 198.305L270.677 196.398C269.74 194.98 269.65 193.613 270.759 192.145C272.057 190.348 274.134 189.788 276.749 191.644L281.989 195.187L275.276 205.011L272.492 203.145L274.729 199.87L273.092 198.753L268.569 200.361L265.456 198.305ZM276.038 197.903L277.716 195.447L275.76 193.971C274.772 193.402 273.923 193.352 273.533 194.181C272.974 194.999 273.273 195.698 274.251 196.437L276.038 197.903Z" fill="white"/>
<path d="M210.841 295.236C210.103 293.32 210.213 291.453 211.342 289.646C212.311 287.659 213.739 286.551 215.646 285.981C217.553 285.412 219.41 285.691 221.226 286.649C222.544 287.407 223.691 288.155 224.48 289.223L222.941 292.198C222.153 291.131 221.175 290.392 220.187 289.823C219.199 289.255 218.011 289.185 216.972 289.465C215.934 289.745 215.215 290.384 214.646 291.372C214.076 292.36 214.016 293.379 214.465 294.427C214.914 295.475 215.552 296.193 216.71 296.772C217.868 297.351 219.205 297.769 220.403 297.669L218.865 300.644C217.497 300.735 215.99 300.306 214.503 299.537C212.696 298.41 211.409 297.143 210.841 295.236Z" fill="white"/>
<path d="M225.692 303.258L227.514 289.742L235.121 290.698C237.996 291.037 239.253 292.813 238.973 294.67C238.723 296.018 238.163 296.836 236.945 297.276C238.602 298.054 239.211 299.282 239.1 301.148C238.8 303.344 236.853 304.593 233.638 304.234L225.692 303.258ZM229.736 301.111L232.95 301.469C234.298 301.719 235.007 301.249 235.067 300.231C235.128 299.213 234.649 298.674 233.301 298.425L230.087 298.066L229.736 301.111ZM230.567 295.71L233.272 296.039C234.45 296.278 235.159 295.809 235.209 294.96C235.259 294.112 234.78 293.573 233.603 293.334L230.897 293.005L230.567 295.71Z" fill="white"/>
<path d="M244.849 304.721L247.237 298.9C245.38 298.621 244.083 297.524 243.684 295.627C243.146 293.212 244.305 290.895 247.76 290.076L254.838 288.447L257.978 301.573L254.174 302.542L253.067 298.22L250.821 298.77L248.812 303.931L244.849 304.721ZM252.719 295.475L251.892 292.191L249.126 292.881C247.918 293.15 247.359 293.969 247.468 294.997C247.578 296.025 248.576 296.424 249.784 296.155L252.719 295.475Z" fill="white"/>
<path d="M264.668 297.878L262.952 295.223C264.499 294.973 266.057 294.553 267.485 293.445C269.252 292.356 269.832 291.198 269.373 290.32C268.904 289.611 268.045 289.731 266.638 290.5L264.331 292.068L262.764 289.763L265.061 288.365C266.13 287.576 266.509 286.917 266.04 286.208C265.571 285.5 264.543 285.61 262.945 286.708C261.527 287.647 260.449 288.605 259.859 289.933L258.133 287.448C258.892 286.13 260.161 284.842 261.928 283.754C263.346 282.815 264.734 282.385 265.932 282.285C267.3 282.195 268.288 282.764 268.747 283.642C269.525 284.88 269.624 286.078 268.705 287.216C270.093 286.786 271.61 287.045 272.548 288.463C273.336 289.53 273.266 290.718 272.667 292.216C272.077 293.544 270.978 294.842 269.211 295.93C267.783 297.038 266.215 297.628 264.668 297.878Z" fill="white"/>
<path d="M280.306 286.873L269.377 278.741L271.605 275.636L274.868 278.041L276.896 275.435C278.934 272.659 281.689 272.139 284.144 273.816C285.282 274.734 285.91 275.622 286 276.99C286.089 278.357 285.669 279.695 284.74 281.003L280.306 286.873ZM280.258 281.932L281.916 279.816C282.834 278.677 282.735 277.48 281.757 276.741C280.779 276.003 279.741 276.283 278.822 277.421L277.164 279.537L280.258 281.932Z" fill="white"/>
<path d="M209.991 275.092C212.685 278.485 216.688 279.912 220.851 278.623C222.409 278.203 221.89 275.449 220.323 276.038C216.858 277.027 214.193 276.019 211.968 273.335C210.861 271.908 208.883 273.665 209.991 275.092Z" fill="white"/>
<path d="M233.347 208.515C228.565 208.746 224.083 209.675 219.709 211.633C218.132 212.392 219.359 214.678 220.936 213.919C224.791 212.101 228.924 211.321 233.197 211.061C234.894 211.16 235.054 208.445 233.347 208.515Z" fill="white"/>
<path d="M232.954 318.669C219.208 317.864 205.852 313.335 194.395 305.512L195.883 303.385C206.852 310.839 219.708 315.168 233.115 315.953C261.286 317.603 288.395 302.673 302.112 278.104L304.247 279.421C290.132 304.989 262.143 320.378 232.954 318.669Z" fill="white"/>
<path d="M296.989 281.209L302.88 279.511L304.405 285.39L306.303 282.095L304.608 276.206L298.718 277.905L296.989 281.209Z" fill="white"/>
<path d="M166.183 206.795L163.867 205.638C178.602 178.233 208.039 161.396 239.115 162.875C257.633 163.619 275.42 170.962 289.171 183.176L287.354 185.113C274.091 173.268 256.963 166.305 238.964 165.421C208.906 164.001 180.349 180.379 166.183 206.795Z" fill="white"/>
<path d="M171.294 203.859L165.404 205.558L163.699 199.838L161.98 202.973L163.675 208.862L169.576 206.994L171.294 203.859Z" fill="white"/>
<path d="M118.668 187.392C119.979 188.924 119.761 188.487 117.793 190.019C116.919 190.894 115.17 191.551 113.203 192.208C111.235 192.864 109.049 193.083 107.3 193.083C105.114 193.083 102.71 192.646 100.742 191.77C98.7749 190.894 97.2447 190.019 95.9331 189.362C94.8401 188.924 94.8401 188.924 95.4959 187.83C96.1517 186.736 96.3703 186.736 97.4633 187.392C98.3377 188.049 99.8679 188.706 101.617 189.143C103.366 189.581 105.333 189.581 107.082 189.581C109.924 189.581 112.328 189.581 114.514 188.924C116.482 188.049 118.012 186.517 118.668 187.392Z" fill="white"/>
<path d="M70.5756 83.8579C70.357 82.9823 70.1384 82.5445 71.6686 82.3257C72.543 82.3257 73.8546 82.3257 75.822 82.5445C77.7894 82.9823 80.4126 83.4201 83.4731 85.1712C86.5335 86.9223 90.0311 89.9868 92.4357 94.3645C94.8403 98.7423 96.1519 104.652 94.8403 110.343C93.7473 116.035 90.4683 121.507 85.6591 125.228C80.8498 128.949 74.9476 130.481 69.7012 130.262C63.3618 130.043 56.8038 126.979 52.4318 122.163C48.0598 117.348 45.8738 110.562 46.5296 104.433C46.9668 98.3045 49.8086 92.8323 53.5248 89.1112C57.241 85.3901 61.613 83.4201 65.1106 82.5445C67.9524 81.8879 69.7012 81.8879 70.5756 81.8879C71.45 82.1068 71.6686 82.3257 71.6686 82.9823C71.6686 83.639 71.45 83.8579 70.357 84.0768C69.264 84.2957 67.2966 84.2957 64.0176 85.1712C60.9572 86.0468 57.4596 88.0168 54.3992 91.3001C51.3388 94.8023 49.1528 99.6179 49.1528 105.09C49.1528 110.562 51.3388 116.035 55.2736 119.975C59.2084 123.915 64.6734 126.322 69.7012 126.322C73.8546 126.541 77.7894 125.447 81.0685 123.696C84.3475 121.945 87.1893 119.099 88.9381 116.035C92.8729 109.906 93.0915 102.463 90.4683 96.9912C89.1567 94.1456 87.1893 91.519 85.0033 89.549C82.8173 87.579 80.4127 86.2657 78.2266 85.3901C73.8546 84.0768 70.5756 84.2957 70.5756 83.8579Z" fill="white"/>
<path d="M53.5252 149.743C54.3996 150.4 54.6182 150.4 53.5252 151.495C53.088 151.932 51.995 152.808 50.902 154.121C49.5904 155.435 48.0602 157.186 46.53 159.812C44.9998 162.439 43.4696 166.16 42.3766 170.538C41.9394 172.727 41.5022 175.134 41.2836 177.542C41.065 179.95 40.8464 182.796 40.4092 185.641C40.1906 186.954 39.972 188.487 39.5348 190.019C39.0976 191.551 38.4418 193.083 37.1302 194.397C36.693 194.834 36.2558 195.053 35.8186 195.272C35.3814 195.491 34.7256 195.71 34.507 195.71C33.6326 195.929 32.9768 195.929 32.1024 195.929C30.3536 195.929 28.8234 195.491 27.2932 194.834C25.763 193.959 24.4514 192.864 23.577 191.332C22.7026 190.019 22.2654 188.487 21.8282 187.173C20.9538 184.328 20.9538 181.701 20.9538 179.074C20.7352 166.598 25.3258 153.465 32.5396 143.833C36.0372 139.018 40.1906 134.859 44.1254 131.795C48.4974 128.73 52.8694 127.417 56.367 126.76C59.4274 126.103 61.1763 126.322 62.0507 126.76C62.9251 127.198 62.9251 127.417 62.9251 128.073C62.9251 128.73 62.4879 128.949 61.3949 128.949C60.3019 128.949 58.3344 128.73 54.8368 129.606C53.3066 130.043 51.5578 130.481 49.809 131.357C47.8416 132.232 46.0928 133.108 44.344 134.64C40.6278 137.705 36.9116 141.645 33.8512 146.241C27.5118 155.653 23.7956 167.911 24.0142 179.074C24.0142 183.452 24.67 187.611 26.6374 190.457C27.7304 191.77 29.2606 192.646 30.7908 192.864C31.6652 193.083 32.5396 192.864 33.1954 192.864C33.6326 192.864 33.8512 192.646 34.0698 192.646C34.2884 192.427 34.507 192.208 34.7256 191.989C35.6 190.894 36.2558 189.143 36.4744 187.392C36.9116 185.641 37.1302 183.89 37.3488 182.139C37.5674 178.637 38.0046 175.134 38.6604 171.851C39.972 165.066 42.8138 158.718 46.0928 154.997C47.623 153.027 49.3718 151.713 50.6834 150.838C52.4322 149.962 53.3066 149.525 53.5252 149.743Z" fill="white"/>
<path d="M30.5719 194.397C30.3533 193.521 30.1347 193.083 31.4463 192.864C32.1021 192.646 33.1951 192.646 34.9439 192.646C35.3811 192.646 35.8183 192.646 36.4741 192.646H36.9113H37.1299C37.3485 192.646 37.5671 192.646 37.7857 192.646C38.8787 192.646 39.9717 192.427 41.5019 192.208C42.1577 192.208 43.4693 192.208 44.3437 192.427C45.4367 192.864 46.3111 193.302 47.1856 194.178C48.9344 195.71 50.0274 197.899 50.246 200.307C50.6832 202.714 50.6832 204.903 50.4646 207.092C50.4646 209.281 50.246 211.689 50.246 214.097C50.0274 216.504 50.246 218.912 49.3716 221.758C48.9344 223.071 48.2786 224.603 47.1856 225.698C46.0925 226.792 44.7809 227.449 43.4693 228.106C40.8461 228.981 38.2229 229.2 35.8183 229.419C33.4137 229.638 31.2277 229.638 28.8231 229.419C26.1999 229.419 23.3581 229.2 20.7349 228.981C19.6419 228.543 18.3303 228.543 16.8001 228.324C15.2699 228.106 13.7397 227.668 12.4281 226.792C11.7723 226.354 11.1165 225.698 10.4607 224.822C10.0235 223.947 9.80486 223.071 9.58626 222.414C9.58626 220.663 9.58626 219.35 9.58626 218.037C9.58626 215.41 9.36766 212.783 9.36766 210.157C9.36766 207.53 9.14906 205.122 9.36766 202.496C9.58626 200.088 10.4607 197.023 13.0839 195.929C15.4885 195.053 17.4559 195.053 19.4233 194.616C21.3907 194.397 23.1395 194.178 24.6697 193.959C29.6975 193.302 30.1347 193.302 30.5719 194.397C30.7905 195.71 29.6975 195.929 23.3581 196.367C21.8279 196.586 20.2977 196.804 18.5489 197.023C17.6745 197.242 16.8001 197.242 15.7071 197.461C15.2699 197.461 14.8327 197.68 14.3955 197.899C14.1769 197.899 13.9583 198.118 13.9583 198.118C13.9583 198.118 13.7397 198.337 13.5211 198.337C12.2095 199.431 11.7723 201.401 11.7723 203.59C11.7723 205.779 11.9909 208.406 12.2095 210.813C12.4281 213.44 12.4281 215.848 12.6467 218.474C12.6467 219.788 12.6467 221.101 13.0839 221.977C13.3025 222.852 13.7397 223.29 14.6141 223.947C16.3629 224.822 19.2047 224.822 21.6093 225.26C24.2325 225.479 26.6371 225.698 29.0417 225.698C32.7579 225.698 36.6927 225.698 39.9717 225.26C41.7205 225.041 43.0321 224.603 44.3437 223.728C45.4367 222.852 46.0925 221.758 46.5297 220.226C46.9669 218.693 46.9669 217.161 47.1856 215.629C47.1856 214.097 47.4041 212.346 47.4041 210.813C47.6227 207.749 47.8414 204.684 47.6227 202.058C47.6227 200.744 47.1856 199.212 46.7483 198.118C46.3111 197.023 45.4367 195.929 44.3437 195.272C43.9065 195.053 43.2507 194.834 42.8135 194.616C42.3763 194.397 41.7205 194.616 41.0647 194.616C39.9717 194.616 38.6601 194.834 37.5671 195.053C37.1299 195.053 36.4741 195.053 35.8183 195.053C35.3811 195.053 34.9439 195.053 34.5067 194.834C33.6323 194.834 32.9765 194.834 32.3207 194.616C31.4463 194.834 30.5719 194.834 30.5719 194.397Z" fill="white"/>
<path d="M81.2874 153.902C83.0362 152.808 82.599 152.589 85.2222 175.134C86.5338 186.298 88.2826 203.371 90.25 221.977C90.6872 226.573 91.1244 231.389 91.7802 235.985C91.9988 238.393 92.436 241.02 91.5616 243.865C90.4686 246.492 88.5012 248.681 85.878 249.994C84.5664 250.651 83.0362 250.87 81.506 250.87C79.9758 250.651 78.6642 250.213 77.3526 249.338C74.948 247.805 73.6364 245.179 72.762 242.771C72.1062 240.363 71.669 237.955 71.4504 235.767C71.2318 233.578 71.0132 231.389 70.7946 229.2C70.3574 224.165 69.7016 218.912 69.2644 213.659C69.0458 211.032 68.8272 208.405 68.39 205.779C68.1714 203.152 68.1714 200.307 66.8598 198.774C66.204 197.899 65.5482 197.461 64.6738 197.68C64.018 197.68 63.1436 198.337 62.4877 199.212C61.3947 200.963 61.3947 203.59 60.9575 206.217C60.3017 211.47 59.6459 216.504 59.2087 221.539C58.5529 226.573 58.1157 231.389 57.4599 235.985C57.2413 238.393 57.0227 240.582 56.5855 242.99C56.1483 245.398 54.6181 247.587 52.8693 248.9C50.9019 250.432 48.7159 251.089 46.5299 251.089C44.3439 251.089 42.1579 250.213 40.6277 248.9C39.0975 247.587 37.7859 245.835 37.1301 244.084C36.4743 242.333 36.2557 240.582 36.0371 239.05C35.5999 233.797 35.8185 231.17 36.0371 229.638C36.2557 228.105 36.6929 227.887 37.3487 227.668C38.0045 227.449 38.2231 227.887 38.4417 229.857C38.4417 230.951 38.4417 232.264 38.4417 234.234C38.4417 236.204 38.4417 238.612 39.0975 241.458C39.3161 242.771 39.7533 244.084 40.6277 245.179C41.5021 246.273 42.5951 247.149 44.1253 247.805C45.4369 248.462 47.1857 248.681 48.7159 248.243C50.2461 247.805 51.7763 246.93 52.8693 245.398C55.0553 242.771 54.8367 237.955 55.4925 233.359C55.9297 228.762 56.3669 223.947 57.0227 218.912C57.4599 213.878 58.1157 208.843 58.5529 203.809C58.7715 202.495 58.7715 201.182 59.2087 199.65C59.6459 198.337 60.3017 196.585 61.6133 195.491C62.7063 194.397 64.8924 193.521 66.8598 194.178C68.8272 194.834 69.9202 196.148 70.7946 197.68C71.4504 199.212 71.669 200.744 71.8876 202.058L72.3248 205.998C72.5434 208.624 72.9806 211.032 73.1992 213.659C73.6364 218.693 74.2922 223.728 74.7294 228.543C75.1666 232.264 75.3852 236.204 76.041 239.488C76.4782 241.239 76.9154 242.771 77.7898 243.865C78.6642 245.179 79.7572 246.054 81.0688 246.711C83.4734 247.805 86.5338 246.054 88.064 243.647C89.8128 241.239 89.157 238.174 88.9384 234.891C87.6268 221.758 86.5338 209.719 85.6594 198.555C82.8176 176.448 80.1944 154.559 81.2874 153.902Z" fill="white"/>
<path d="M83.6919 171.632C84.5663 171.194 84.7849 170.976 85.2221 171.632C85.6593 172.289 86.9709 174.04 91.343 175.572C93.3104 176.448 96.3708 177.323 99.2126 177.542C102.492 177.761 106.208 177.761 109.487 176.667C112.547 175.791 115.389 172.508 114.296 169.662C113.859 168.349 112.766 167.036 111.454 166.16C110.143 165.285 108.394 164.628 106.864 164.19C104.896 163.752 102.71 163.315 100.306 162.877C98.1196 162.22 95.715 161.126 93.7476 159.593C90.0313 156.31 88.0639 151.713 86.7523 147.773C85.4407 143.615 84.1291 139.893 82.3803 136.829C80.6315 133.765 78.4455 131.795 76.2595 130.7C74.5107 129.825 73.4177 129.825 72.9805 129.606C72.5433 129.387 72.3247 129.168 72.3247 128.511C72.3247 127.855 72.5433 127.636 73.4177 127.417C74.2921 127.417 76.2595 127.636 78.6641 129.387C80.8501 130.919 83.2547 133.327 85.0035 136.61C86.7523 139.893 88.0639 143.833 89.5941 147.555C91.1243 151.276 93.0917 155.216 96.1522 157.405C99.2126 159.812 103.366 160.031 107.519 161.126C110.798 162.001 114.296 163.533 116.263 166.598C117.356 168.13 117.794 170.1 117.575 171.851C117.356 173.602 116.482 175.134 115.389 176.448C113.203 178.856 110.143 179.95 107.519 180.169C104.896 180.607 102.273 180.607 100.087 180.388C97.4638 180.388 95.0592 179.731 92.8731 179.074C90.6871 178.418 88.7197 177.542 87.1895 176.448C85.6593 175.572 84.3477 174.259 83.9105 173.383C83.4733 172.508 83.4733 171.632 83.6919 171.632Z" fill="white"/>
<path d="M0.842232 249.557C0.623632 247.806 0.623632 248.243 3.90264 247.806C6.96305 247.368 13.5211 247.587 18.1117 247.368C23.7953 247.149 30.5719 248.024 33.8509 247.587C35.1625 247.368 35.3811 247.368 35.3811 248.681C35.3811 249.994 35.1625 250.213 33.4137 249.994C30.1347 249.994 23.5767 250.651 18.1117 250.87C13.9583 251.089 10.2421 250.432 7.18165 250.213C4.12124 250.213 1.06083 250.651 0.842232 249.557Z" fill="white"/>
<path d="M127.631 244.084C127.849 245.836 127.849 245.398 125.445 246.054C123.04 246.492 118.012 246.711 114.078 246.93C109.487 247.368 104.24 246.711 101.617 247.368C100.524 247.587 100.524 247.587 100.306 246.273C100.087 244.96 100.306 244.741 101.836 244.741C104.24 244.741 109.706 243.866 113.859 243.428C117.138 243.209 120.198 243.647 122.603 243.647C125.008 243.428 127.412 242.99 127.631 244.084Z" fill="white"/>
<path d="M54.3991 262.252C53.9619 264.003 54.1805 263.565 51.9945 263.565C49.8085 263.347 45.4365 262.471 41.9389 262.252C38.0041 262.033 33.1948 261.377 30.7902 262.033C29.9158 262.252 29.6972 262.252 29.4786 261.158C29.26 259.844 29.4786 259.625 30.7902 259.625C33.1948 259.407 38.0041 258.531 42.1575 258.75C45.4365 258.969 47.8411 260.063 50.0271 260.501C52.4317 260.939 54.6177 261.158 54.3991 262.252Z" fill="white"/>
<path d="M112.765 165.722C111.891 165.066 111.454 165.066 112.328 163.971C113.203 162.877 115.17 160.907 118.668 156.31C120.416 154.121 122.384 151.276 124.57 147.992C125.663 146.241 126.756 144.49 127.849 142.739C128.067 142.301 128.286 141.863 128.723 141.426C129.16 140.55 129.816 139.674 130.253 138.799C130.472 138.58 130.472 138.361 130.691 138.142L131.346 138.58L132.877 139.456C133.532 139.893 134.188 140.112 134.844 140.55C143.151 145.366 152.113 150.4 159.764 154.997C159.983 155.434 160.42 155.653 160.639 156.091C160.639 156.529 160.639 156.967 160.42 157.404C160.202 157.842 159.983 158.061 159.764 158.499L159.109 159.374L158.234 160.469L156.485 162.658C155.392 164.19 154.081 165.503 152.988 167.036C150.583 169.881 148.179 172.727 145.774 175.353C140.746 181.044 135.937 186.517 132.002 190.894C128.723 188.487 125.881 186.517 123.477 184.766C121.291 183.233 119.323 181.92 117.793 180.607C113.421 177.542 113.203 177.323 113.858 176.229C114.514 175.134 115.389 175.572 120.635 179.512C122.821 181.263 125.881 183.233 131.565 187.611C134.407 184.109 138.56 179.293 142.932 174.04C145.337 171.194 147.741 168.13 150.146 165.284C151.239 163.752 152.551 162.22 153.644 160.907C154.299 160.25 154.737 159.374 155.392 158.718L156.267 157.623C156.485 157.404 156.485 157.404 156.485 157.404C153.425 155.653 150.583 153.902 147.741 152.37C144.681 150.619 141.839 148.868 138.997 147.117C137.686 146.241 136.156 145.366 134.844 144.709C134.188 144.271 133.532 143.833 132.877 143.396L132.002 142.958V141.863C132.002 141.863 131.784 141.644 131.784 141.863L131.565 142.082L131.346 142.52C130.909 143.177 130.691 143.614 130.253 144.271C129.379 145.584 128.723 146.679 128.067 147.773C121.509 157.842 113.858 166.16 112.765 165.722Z" fill="white"/>
<path d="M149.491 159.156C148.398 160.688 148.835 160.469 147.305 159.812C145.775 159.156 143.152 157.186 140.966 156.31C138.343 154.997 135.501 153.027 133.533 152.808C132.878 152.808 132.659 152.808 133.096 151.494C133.315 150.181 133.533 150.181 134.408 150.4C135.938 151.057 139.654 151.713 142.277 153.027C144.463 154.121 145.775 155.653 147.087 156.748C148.617 157.623 150.147 158.28 149.491 159.156Z" fill="white"/>
<path d="M146.211 163.971C145.337 165.722 145.556 165.284 144.025 164.847C142.277 164.409 139.435 162.439 137.249 161.344C134.407 160.031 131.784 157.404 130.035 156.967C129.379 156.748 129.161 156.748 129.816 155.653C130.472 154.559 130.691 154.34 131.347 154.997C132.877 155.872 136.374 157.186 138.779 158.499C140.746 159.593 142.277 161.126 143.588 162.001C145.118 162.439 146.649 162.877 146.211 163.971Z" fill="white"/>
<path d="M142.277 169.662C141.402 171.413 141.621 170.976 140.091 170.538C138.342 170.1 135.5 168.13 133.314 167.036C130.472 165.722 127.849 163.096 126.1 162.658C125.445 162.439 125.226 162.439 125.882 161.344C126.538 160.25 126.756 160.031 127.412 160.688C128.942 161.563 132.44 162.877 134.844 164.19C136.812 165.284 138.342 166.817 139.654 167.692C141.184 168.349 142.714 168.568 142.277 169.662Z" fill="white"/>
<path d="M135.938 173.164C135.282 174.916 135.501 174.259 133.096 174.04C132.003 174.04 130.036 174.04 128.505 174.478C127.631 174.916 127.631 175.134 127.631 175.353C127.631 175.791 128.068 176.667 128.724 177.104C130.254 178.418 132.44 178.856 133.752 177.761C134.408 177.104 134.845 176.229 134.626 175.572C134.408 174.916 133.97 174.259 133.533 174.259C132.877 174.259 132.877 174.259 132.659 173.164C132.44 172.508 132.44 172.289 132.877 171.851C133.315 171.632 134.189 171.632 135.064 172.289C135.938 172.946 136.812 173.821 137.25 175.353C137.468 176.886 137.031 178.637 135.938 179.731C134.845 181.044 132.877 181.701 131.347 181.482C129.598 181.263 128.287 180.607 126.975 179.731C126.101 178.856 125.226 177.98 125.008 176.667C124.571 175.353 125.008 173.821 126.101 172.946C126.975 172.07 128.068 171.851 128.724 171.632C129.598 171.413 130.254 171.413 131.129 171.413C133.315 171.194 136.375 172.07 135.938 173.164Z" fill="white"/>
<path d="M319.476 103.117C318.661 102.914 318.05 102.711 319.272 101.293C320.495 99.8744 323.754 98.0507 330.475 97.4428C332.105 97.2402 334.142 97.2402 336.179 97.8481C338.215 98.456 340.252 99.2665 342.289 100.28C346.567 102.509 350.844 105.953 353.492 111.019C354.714 113.451 355.529 116.49 355.529 119.327C355.529 122.164 354.918 125.001 353.696 127.635C351.455 132.904 347.585 136.956 343.104 139.591C340.252 141.009 337.197 142.022 334.142 142.225C330.883 142.427 327.624 142.022 324.772 140.806C318.865 138.577 313.977 134.119 311.532 128.648C309.088 123.177 309.292 117.301 310.514 112.64C311.94 107.777 314.588 104.13 317.439 101.901C318.661 100.888 319.68 100.28 320.495 100.077C321.309 99.6718 321.92 99.4692 322.328 99.4692C323.142 99.2665 323.346 99.6718 323.754 100.077C323.957 100.685 323.957 101.09 322.939 101.496C322.124 102.103 320.087 102.509 317.847 104.738C315.606 106.764 313.569 110.006 312.551 114.261C311.736 118.517 311.94 123.785 314.384 128.243C316.828 132.701 321.309 136.348 326.402 137.969C331.494 139.793 337.197 138.78 341.474 136.348C348.4 132.498 352.677 125.204 352.474 118.314C352.474 114.869 351.252 111.83 349.418 109.196C347.585 106.561 345.141 104.535 342.493 102.914C339.845 101.293 336.79 100.077 334.142 99.6718C331.29 99.2665 328.642 99.6718 326.402 100.077C324.161 100.482 322.328 101.293 321.309 101.901C320.291 102.711 319.68 103.117 319.476 103.117Z" fill="white"/>
<path d="M404.211 258.334C404.618 259.144 404.822 259.55 402.785 259.55C401.767 259.55 400.341 259.144 398.304 257.928C396.471 256.713 394.23 254.281 393.212 250.634C391.99 246.986 392.193 242.326 392.193 237.462C392.193 232.599 392.193 226.926 392.193 221.252C392.193 215.578 392.193 209.499 392.193 203.623C391.99 197.746 392.601 191.87 391.175 187.209C390.36 184.373 388.73 181.941 386.286 180.117C383.842 178.294 380.99 176.875 377.935 175.457C372.028 172.62 365.917 169.986 360.418 167.351C357.566 166.136 354.918 164.717 352.27 163.501C349.622 162.286 346.974 161.07 344.734 159.449C342.493 158.03 340.456 156.207 339.03 154.18C337.605 152.154 336.79 150.128 336.383 148.101C335.771 144.656 336.383 142.833 336.994 142.022C337.605 141.212 337.808 141.212 338.419 141.212C339.03 141.414 339.234 141.82 338.827 142.833C338.623 143.846 338.012 145.872 339.03 149.317C339.438 150.735 340.456 152.559 341.678 153.978C343.104 155.599 344.937 157.017 346.974 158.233C349.215 159.449 351.659 160.664 354.307 161.678C356.955 162.893 359.603 164.109 362.455 165.325C368.158 167.757 374.065 170.391 379.972 173.025C383.027 174.241 386.083 175.659 388.73 177.888C391.378 179.915 393.619 183.157 394.434 186.196C395.86 191.262 395.452 195.923 395.452 200.178C395.452 204.636 395.249 208.689 395.249 212.944C395.045 221.049 394.841 228.547 394.841 235.436C394.841 238.881 394.841 242.528 395.045 245.77C395.249 249.013 396.063 251.849 397.489 253.673C398.915 255.699 400.748 256.713 401.97 257.321C403.192 257.928 404.007 257.928 404.211 258.334Z" fill="white"/>
<path d="M404.007 259.955C404.007 259.144 404.007 258.739 404.618 258.536C405.025 258.536 405.636 258.334 406.451 258.131C407.266 257.726 408.488 257.118 409.506 255.699C410.525 254.281 411.34 252.052 411.747 249.418C412.154 246.581 412.562 243.339 412.969 240.097C413.784 233.41 414.191 226.115 414.395 220.036C414.599 216.389 414.599 212.539 414.599 208.689C414.599 204.839 414.802 200.988 415.413 197.138C416.024 193.491 417.247 189.844 419.283 187.209C421.117 184.575 423.357 182.549 425.598 181.536C427.431 180.523 428.449 180.32 429.061 180.32C429.672 180.32 429.875 180.725 429.875 181.13C430.079 181.738 429.875 182.144 429.264 182.346C428.653 182.751 427.431 182.954 425.598 183.967C423.968 184.98 422.135 186.602 420.709 189.033C419.283 191.465 418.265 194.504 417.858 197.949C417.45 201.394 417.654 205.041 417.654 208.891C417.654 212.741 417.654 216.389 417.654 220.036C417.247 231.181 415.617 240.705 414.395 248.607C413.988 250.634 413.58 252.863 412.765 254.686C411.951 256.51 410.729 258.131 409.303 259.144C407.877 260.157 406.451 260.563 405.433 260.563C404.618 260.563 404.007 260.36 404.007 259.955Z" fill="white"/>
<path d="M425.598 182.346C425.19 181.536 424.783 181.13 426.82 180.725C427.838 180.522 429.468 180.522 431.912 180.522C434.356 180.522 437.412 180.522 441.486 179.915C445.559 179.307 450.652 178.091 456.151 176.065C461.651 174.038 467.761 171.404 473.872 168.364C479.983 165.122 487.112 162.488 490.982 157.422C493.019 154.991 494.037 151.749 493.834 148.912C493.63 146.075 491.593 143.643 489.149 142.225C486.093 140.604 482.427 140.198 478.964 141.009C475.298 141.82 471.835 143.441 468.576 145.467C461.854 149.317 455.133 154.18 447.392 155.801C443.522 156.612 439.652 156.409 436.19 155.801C432.727 155.193 429.468 153.978 426.413 152.964C420.302 150.938 415.006 149.317 410.525 147.899C403.192 145.67 402.785 145.467 402.785 144.251C402.785 143.035 404.414 143.238 413.376 146.277C417.45 147.493 422.542 149.317 428.653 151.141C434.56 152.964 441.282 154.788 448.207 152.762C455.133 150.938 461.243 146.277 467.965 142.225C471.428 140.198 475.094 138.375 479.168 137.564C483.242 136.754 487.723 137.159 491.186 139.185C494.037 140.806 496.278 143.441 497.093 146.48C497.907 149.722 497.296 152.762 496.074 155.396C494.852 158.03 493.019 160.259 490.778 161.88C488.741 163.501 486.501 164.92 484.26 166.136C475.502 170.593 467.15 174.443 459.41 177.28C451.263 180.32 442.911 182.144 436.597 182.346C433.338 182.549 430.69 182.144 428.857 182.144C426.82 182.549 425.802 182.751 425.598 182.346Z" fill="white"/>
<path d="M360.621 137.564C359.603 136.146 359.603 136.551 370.806 132.093C376.305 129.864 385.064 126.622 394.23 123.177C396.471 122.164 398.915 121.354 401.359 120.34C403.803 119.53 406.248 118.517 409.099 118.111C410.525 117.909 411.747 117.909 413.173 117.909C414.599 117.909 416.025 118.111 417.247 118.719C418.673 119.327 419.691 119.935 420.709 120.746C421.728 121.556 422.746 122.569 423.357 123.785C424.987 126.419 425.802 129.864 424.58 133.106C423.357 136.348 420.506 138.375 418.061 139.793C415.414 141.212 412.766 142.225 410.118 143.238C407.47 144.251 405.025 145.264 402.377 146.277C392.193 150.127 382.62 151.951 376.102 153.167C370.602 153.978 370.398 153.978 369.991 152.762C369.584 151.546 370.602 151.343 377.324 150.533C383.231 149.722 392.6 147.493 402.174 143.441C404.618 142.427 407.062 141.414 409.507 140.198C411.951 138.983 414.599 137.97 416.839 136.754C419.08 135.538 420.913 133.714 421.524 131.688C422.135 129.662 421.728 127.23 420.506 125.406C419.691 123.988 418.265 122.772 416.839 121.961C415.414 121.151 413.784 120.948 411.951 120.948C410.118 120.948 408.488 121.151 406.859 121.556C405.229 121.961 403.396 122.569 401.766 123.177C398.507 124.393 395.452 125.609 392.193 126.622C389.138 127.635 386.286 128.648 383.434 129.662C372.232 134.119 361.232 138.577 360.621 137.564Z" fill="white"/>
<path d="M378.953 129.662C379.564 131.283 379.36 130.877 376.509 131.891C375.083 132.296 372.842 132.701 370.194 132.701C367.343 132.904 364.491 131.891 362.454 131.283C359.806 130.472 357.362 129.459 355.121 129.864C352.881 130.269 351.048 131.688 350.233 133.106C349.622 134.12 349.622 134.322 348.603 133.714C347.585 133.106 347.585 132.701 348.807 131.283C349.826 130.067 351.862 128.041 354.918 127.23C357.973 126.419 361.232 127.433 363.676 128.243C365.51 128.851 367.139 129.459 368.769 129.864C370.194 130.269 371.824 130.269 373.25 130.067C376.101 129.662 378.749 128.648 378.953 129.662Z" fill="white"/>
<path d="M339.234 152.964C339.03 153.775 339.03 154.18 338.012 153.978C336.993 153.775 335.364 152.964 331.494 151.749C327.624 150.533 321.92 148.912 315.402 147.696C308.884 146.48 301.959 145.467 295.848 144.454C293.811 144.049 291.978 143.441 290.145 142.427C288.312 141.414 286.479 139.996 285.46 137.767C284.442 135.741 284.442 133.106 285.46 131.08C286.479 129.054 287.904 127.635 289.738 126.622C291.367 125.609 293.404 125.204 295.237 125.204C297.07 125.204 298.7 125.204 300.126 125.204C303.181 125.406 305.829 125.609 308.07 125.812C311.736 126.217 312.143 126.419 311.94 127.635C311.736 128.851 311.125 128.648 306.847 128.04C304.811 127.838 302.366 127.635 299.311 127.635C297.885 127.635 296.256 127.635 294.83 127.838C293.404 128.04 291.978 128.446 290.756 129.459C289.534 130.269 288.515 131.485 288.108 132.904C287.701 134.322 287.701 135.741 288.515 136.956C289.941 139.388 293.404 140.806 296.459 141.414C307.051 142.833 316.421 145.062 324.161 147.088C328.235 148.101 332.105 149.317 334.753 150.33C337.604 151.546 339.438 152.356 339.234 152.964Z" fill="white"/>
<path d="M432.931 133.106C431.301 132.498 431.708 132.701 432.116 130.472C432.319 129.459 432.523 127.838 432.523 126.014C432.523 124.19 431.912 122.367 431.301 120.948C430.486 119.327 429.264 117.504 427.838 116.085C426.412 114.667 424.783 113.856 423.561 113.654C422.542 113.451 422.542 113.451 422.746 112.235C422.95 111.019 423.153 111.019 424.579 111.425C425.801 111.83 427.635 112.64 429.671 114.059C431.505 115.477 433.338 117.301 434.356 119.327C435.986 122.569 435.578 125.812 435.171 128.243C434.56 131.08 433.949 133.512 432.931 133.106Z" fill="white"/>
<path d="M510.536 158.435C508.907 157.422 509.518 157.828 510.129 155.801C510.536 154.788 510.943 153.37 511.351 151.749C511.554 150.128 511.758 148.304 511.351 146.885C510.943 145.062 510.332 143.238 509.518 141.617C508.703 139.996 507.481 138.78 506.462 138.172C505.648 137.767 505.648 137.767 506.259 136.754C506.87 135.741 507.073 135.741 508.295 136.551C509.314 137.362 510.74 138.577 511.962 140.199C513.184 141.82 514.406 144.049 514.813 146.278C515.425 149.722 514.406 152.559 513.591 154.585C512.573 156.814 511.554 159.043 510.536 158.435Z" fill="white"/>
<path d="M432.32 260.36C432.32 262.184 432.523 261.576 427.431 261.778C422.339 261.981 411.747 261.778 404.007 261.981C394.637 262.184 383.638 261.373 377.935 261.576C375.49 261.576 375.49 261.576 375.49 260.36C375.49 259.144 375.898 258.942 378.749 259.144C383.842 259.549 395.045 258.739 403.803 258.739C410.729 258.536 416.839 259.144 421.931 259.347C427.024 259.347 432.116 259.347 432.32 260.36Z" fill="white"/>
<path d="M367.751 260.36C367.751 262.184 367.751 261.778 366.121 261.981C364.492 262.184 361.029 261.981 358.381 261.981C355.326 261.981 351.659 260.968 349.826 261.373C349.011 261.576 349.011 261.576 349.011 260.36C349.011 259.144 349.215 258.942 350.03 259.144C351.659 259.347 355.326 258.739 358.381 258.739C360.621 258.739 362.658 259.549 364.288 259.549C365.917 259.752 367.751 259.347 367.751 260.36Z" fill="white"/>
<path d="M418.265 139.185C417.858 138.172 417.654 137.97 419.895 137.767C422.135 137.564 427.431 137.362 437.615 135.335C442.504 134.322 448.818 132.498 455.336 129.662C461.854 126.825 468.983 122.772 475.094 117.301C478.149 114.464 481.001 111.425 483.445 107.98C484.668 106.359 485.686 104.535 486.704 102.711L487.112 101.901L485.89 102.509C484.871 103.117 483.853 103.319 482.834 103.724C481.816 104.13 480.797 104.535 479.779 104.738C478.761 105.143 477.742 105.346 476.724 105.548C475.705 105.751 474.687 106.156 473.668 106.359C472.65 106.561 471.631 106.764 470.613 106.764C468.576 107.169 466.539 107.169 464.502 107.372C454.929 107.98 444.948 106.764 435.375 105.751C425.801 104.535 416.228 103.522 407.062 103.724C404.822 103.927 402.581 103.927 400.34 104.13C398.1 104.332 396.063 104.738 394.026 105.143C389.952 106.156 386.082 107.372 382.416 108.79C375.287 111.627 369.176 114.869 364.491 117.909C360.621 120.34 358.584 121.961 357.566 122.569C356.344 123.38 356.14 123.177 355.529 122.772C354.918 122.367 355.122 121.961 356.547 120.746C357.973 119.53 360.621 117.301 365.713 114.464C370.194 111.83 376.305 108.79 383.638 105.953C387.304 104.535 391.174 103.319 395.452 102.306C399.729 101.293 404.21 101.09 408.895 101.09C427.431 100.482 447.189 105.346 464.502 104.13C471.428 103.724 477.946 102.306 483.649 100.077C484.464 99.8745 485.075 99.4692 485.89 99.0639C486.704 98.6587 488.741 97.6455 489.76 97.4429L491.389 97.0376L491.797 96.835V97.0376V97.2402L491.593 98.2534C491.593 98.8613 491.389 99.4692 491.389 100.077C491.389 100.685 491.186 101.293 490.982 101.901C490.371 103.522 490.167 103.927 489.76 104.738C489.352 105.346 488.945 106.156 488.538 106.764L487.315 108.79L485.89 110.614C482.223 115.477 477.742 119.53 473.261 122.772C468.78 126.014 464.095 128.648 459.41 130.877C449.837 135.335 439.652 137.97 431.912 138.577C423.765 139.793 418.469 139.793 418.265 139.185Z" fill="white"/>
<path d="M289.33 128.648C288.923 129.459 288.719 129.662 287.701 128.851C286.682 128.041 284.849 126.014 281.183 121.759C279.349 119.733 277.312 116.896 275.072 113.654C274.053 112.033 272.831 110.209 271.813 108.385C271.609 107.98 271.405 107.777 271.202 107.372C271.202 107.372 271.405 107.372 270.998 107.575L269.572 108.385C265.702 110.614 261.628 112.843 257.758 115.072C255.721 116.085 253.888 117.301 251.851 118.314C250.833 118.922 250.018 119.327 249 119.935L248.389 120.34L249.203 121.556L250.833 123.583C251.851 125.001 252.87 126.217 254.092 127.635C256.332 130.27 258.369 132.904 260.61 135.538C264.684 140.401 268.554 145.062 271.813 148.912C274.257 147.088 276.498 145.67 278.331 144.251C280.368 142.833 282.201 141.414 283.627 140.401C287.497 137.362 287.701 137.362 288.719 138.172C289.534 138.983 288.923 139.793 284.034 143.238C281.386 145.062 278.127 147.493 271.813 152.154C268.554 148.506 264.276 143.441 259.388 137.97C257.147 135.335 254.703 132.701 252.462 129.864C251.24 128.446 250.222 127.027 249 125.609C248.389 125.001 247.981 124.191 247.37 123.583L246.555 122.569L245.944 121.759C245.741 121.354 245.537 120.948 245.333 120.746C244.519 120.34 244.519 119.935 244.519 119.53C244.519 119.125 244.926 118.922 245.13 118.719C245.333 118.517 245.741 118.314 246.148 117.909L246.963 117.301C247.778 116.896 248.592 116.49 249.407 116.085C251.037 115.275 252.462 114.464 254.092 113.654C257.147 112.033 259.999 110.411 262.851 108.993C265.906 107.372 268.758 105.954 271.405 104.535L272.22 104.13L272.628 103.927C272.628 103.927 272.831 104.13 272.831 104.332L273.646 105.751C274.053 106.359 274.461 107.169 274.868 107.777C275.479 108.993 276.294 110.209 276.905 111.222C282.405 120.543 289.941 127.635 289.33 128.648Z" fill="white"/>
<path d="M255.11 122.772C254.092 121.354 254.295 121.759 255.517 120.543C256.74 119.327 259.591 117.909 261.832 117.098C264.48 115.883 267.942 115.68 269.368 114.869C269.979 114.464 269.979 114.464 270.387 115.68C270.794 116.896 270.59 117.098 269.776 117.098C268.35 117.504 265.295 118.922 263.054 120.138C261.221 120.948 259.388 121.151 257.962 121.961C256.74 122.569 255.925 123.583 255.11 122.772Z" fill="white"/>
<path d="M258.166 127.23C257.351 125.609 257.555 126.014 258.777 125.001C259.999 123.988 263.054 122.772 265.091 121.759C267.739 120.543 270.998 119.733 272.424 118.719C273.035 118.314 273.035 118.314 273.646 119.327C274.257 120.34 274.257 120.543 273.442 120.948C272.016 121.556 269.165 123.583 266.721 124.798C264.887 125.812 262.85 126.014 261.425 126.622C259.795 127.23 258.777 128.243 258.166 127.23Z" fill="white"/>
<path d="M261.832 132.498C261.017 130.877 261.221 131.283 262.443 130.269C263.665 129.256 266.721 128.041 268.758 127.027C271.405 125.812 274.664 125.001 276.09 123.988C276.701 123.583 276.701 123.583 277.312 124.596C277.924 125.609 277.924 125.812 277.109 126.217C275.683 126.825 272.831 128.851 270.387 130.067C268.554 131.08 266.517 131.283 265.091 131.891C263.665 132.498 262.443 133.512 261.832 132.498Z" fill="white"/>
<path d="M267.739 135.741C267.331 134.93 267.128 134.727 267.331 134.525C267.535 134.322 268.35 133.917 269.776 133.512C271.202 133.106 273.442 132.904 275.886 133.917C276.497 134.12 277.312 134.525 277.72 135.335C278.331 136.146 278.534 137.159 278.534 137.97C278.331 139.793 277.312 140.806 276.294 141.617C275.072 142.63 273.646 143.035 272.22 143.238C270.59 143.238 268.961 142.63 268.146 141.414C267.128 140.199 266.924 138.78 267.331 137.564C267.739 136.348 268.554 135.538 269.368 135.133C270.183 134.727 270.59 134.727 270.998 134.93C271.202 135.133 271.202 135.335 270.998 135.943C270.794 136.551 270.794 136.754 270.59 136.956C270.59 136.956 270.59 136.956 270.183 136.956C269.979 137.159 269.572 137.564 269.368 137.97C269.368 138.375 269.572 139.185 270.183 139.591C270.794 139.996 271.405 140.198 272.22 140.198C273.035 139.996 273.85 139.591 274.461 139.185C274.868 138.78 275.275 138.375 275.479 137.97C275.683 137.564 275.683 137.362 275.479 137.159C275.072 136.348 273.646 135.943 272.627 135.741C270.387 135.335 268.35 136.551 267.739 135.741Z" fill="white"/>
<path d="M418.265 93.5928C419.895 93.5928 419.691 93.5928 419.691 96.2271C419.691 97.6455 419.487 99.6718 418.876 101.698C418.469 103.927 417.654 106.156 416.839 107.98C415.413 112.032 412.765 116.288 411.951 118.922L410.932 117.706C411.543 117.504 411.747 117.504 412.154 117.301C413.173 116.896 413.376 116.896 413.784 117.909C414.191 118.922 413.988 119.327 412.562 119.53C412.358 119.53 412.154 119.53 411.747 119.733L409.303 120.34L410.117 117.909C410.932 115.477 412.765 110.614 413.988 106.764C415.21 103.522 416.432 100.888 417.043 98.456C417.45 96.0244 417.247 93.5928 418.265 93.5928Z" fill="white"/>
<path d="M414.802 82.4479C414.395 81.84 414.191 81.4348 414.395 81.2321C414.599 80.8269 415.413 80.4216 416.839 80.0163C418.265 79.4084 420.913 79.2058 423.561 80.219C423.968 80.219 424.376 80.219 424.579 80.4216C424.987 80.6242 425.598 81.0295 426.005 81.2321C426.82 82.0427 427.227 83.0558 426.82 84.069C426.616 85.0822 425.394 85.6901 424.579 86.0953C423.968 86.5006 423.357 86.7032 422.746 86.9059C421.32 87.3111 419.895 87.5138 418.265 87.5138C417.45 87.5138 416.839 87.3111 416.025 87.1085C415.21 86.9059 414.395 86.5006 413.784 85.6901C413.58 85.2848 413.173 84.2716 413.377 83.4611C413.377 82.4479 413.988 81.84 414.599 81.4348C415.617 80.4216 416.839 80.4216 417.654 80.219C419.08 80.219 419.08 80.219 419.08 81.4348C419.08 82.6506 418.672 82.6506 417.45 82.6506C416.839 82.6506 416.228 82.8532 416.025 83.2585C415.617 83.2585 415.617 83.4611 415.617 83.6637C415.617 83.8664 415.821 84.069 416.025 84.2716C416.432 84.6769 417.654 84.8795 418.672 84.6769C419.691 84.6769 420.913 84.4743 421.931 84.069C422.339 83.8664 422.746 83.8664 422.95 83.6637L423.154 83.4611C423.357 83.4611 423.357 83.2585 423.357 83.0558C423.357 83.0558 423.357 83.0558 423.357 82.8532C423.154 82.8532 423.154 82.6506 422.95 82.6506C422.746 82.4479 422.339 82.2453 421.931 82.2453C421.32 82.0427 420.709 81.84 420.098 81.84C418.876 81.6374 417.654 82.0427 416.839 82.2453C415.821 82.6506 415.21 82.8532 414.802 82.4479Z" fill="white"/>
<path d="M414.599 75.7611C414.802 76.5716 415.006 76.9769 413.988 77.1795C413.377 77.3821 412.765 77.3821 411.543 77.7874C410.321 78.1927 408.692 78.8006 407.47 80.219C407.062 80.8269 406.655 81.6374 406.451 82.6506C406.247 83.6638 406.451 84.069 407.062 84.8796C408.081 85.6901 407.673 85.8927 411.747 86.7033C412.562 86.9059 412.969 87.3112 413.173 87.5138C413.377 87.7164 413.58 87.9191 413.58 88.527C413.58 88.9322 413.58 88.9322 413.377 89.3375C413.173 89.5401 413.173 89.9454 412.154 90.5533C411.543 90.7559 410.932 90.9586 410.729 91.1612C410.525 91.3638 410.525 91.3638 410.525 91.3638C410.525 91.5665 410.525 91.5665 410.525 91.5665C410.525 91.7691 410.729 92.1744 411.136 92.1744C411.543 92.377 412.154 92.5796 412.969 92.5796C413.784 92.5796 414.395 92.7823 415.21 92.5796C416.636 92.377 418.265 91.9717 419.691 91.3638C420.506 91.1612 421.117 90.7559 421.931 90.3507L422.95 89.7428L423.561 89.3375C423.968 89.1349 424.376 89.1349 424.579 88.9322C425.19 88.9322 426.005 89.1349 426.209 89.3375C426.413 89.5401 426.82 89.5401 427.024 89.7428C427.635 89.9454 428.042 90.148 428.653 90.3507C429.672 90.7559 430.69 90.7559 431.301 90.7559C431.912 90.7559 432.931 90.148 433.542 89.7428C434.153 89.1349 434.56 88.527 434.764 87.9191C434.968 87.1085 434.968 86.298 434.56 85.6901C434.356 85.4875 434.356 85.4875 434.356 85.2848C434.356 85.0822 434.153 85.0822 433.949 84.8796H433.745C433.745 84.8796 433.542 84.6769 433.338 84.6769C433.134 84.4743 432.931 84.4743 432.727 84.2717C432.523 84.2717 431.912 84.069 431.301 83.8664C430.69 83.4611 430.283 83.0559 430.283 82.8532C430.283 82.6506 430.283 82.6506 430.283 82.448V82.2453V82.0427C430.283 81.8401 430.69 81.6374 431.097 81.2322C431.505 80.8269 432.523 80.6243 433.338 80.4216C434.356 80.0164 434.153 80.0164 434.56 79.8137C434.764 79.6111 434.968 79.4085 434.968 79.2058C435.171 78.8006 434.968 78.3953 434.764 77.99C433.134 75.7611 429.875 75.7611 427.024 76.1663C425.598 76.369 424.172 76.5716 422.746 76.7742H422.543C422.339 76.7742 422.543 76.9769 421.728 76.7742C421.524 76.7742 421.32 76.5716 421.32 76.369C421.32 76.1663 421.32 76.1663 421.32 75.9637C421.32 75.7611 421.32 75.5584 421.32 75.5584V75.3558C421.32 75.1532 421.524 75.1532 421.524 75.1532C421.524 74.9505 421.728 74.9505 421.728 74.9505L422.135 74.14C422.339 73.9374 422.543 73.7347 422.543 73.7347C422.543 73.5321 422.543 73.3295 422.543 73.1268C422.543 72.5189 421.931 72.3163 420.913 72.5189C419.895 72.7216 419.08 73.3295 418.265 73.7347C416.636 74.9505 416.024 75.7611 415.617 76.1663C415.21 76.5716 414.802 76.5716 414.395 76.1663C413.784 75.9637 413.58 75.5584 413.988 74.7479C414.395 73.9374 415.617 72.3163 418.265 71.1005C419.283 70.6952 420.098 70.0873 421.524 70.0873C422.135 70.0873 423.357 70.29 423.968 71.1005C424.579 71.911 424.783 72.9242 424.579 73.9374C424.579 74.3426 424.172 74.9505 423.968 75.3558C423.765 75.7611 423.357 75.9637 423.154 76.1663L422.746 76.5716L422.543 76.7742L422.135 76.369C421.931 76.1663 421.728 76.1663 421.728 76.1663V75.9637C421.728 75.9637 421.728 75.7611 421.728 76.1663V75.3558C421.728 75.1532 421.728 75.3558 421.728 75.3558H421.931H422.339C423.765 74.14 425.19 73.7347 426.616 73.5321C428.042 73.3295 429.672 73.1268 431.505 73.5321C432.32 73.5321 433.338 73.9374 434.153 74.3426C435.171 74.7479 435.986 75.3558 436.597 76.1663C437.208 76.9769 437.819 78.3953 437.412 79.8137C437.208 80.4216 437.004 81.0295 436.597 81.4348C436.393 81.8401 436.19 82.0427 435.986 82.2453L435.579 82.448H435.375H435.579C435.986 82.8532 436.597 83.2585 437.004 83.8664C438.023 85.4875 438.227 86.9059 438.023 88.3243C437.819 89.7428 437.004 91.3638 435.782 92.377C435.171 92.7823 434.56 93.1875 433.949 93.5928C433.338 93.9981 432.727 94.2007 431.708 94.2007C429.875 94.4033 428.449 93.9981 427.227 93.5928C426.616 93.3902 426.005 93.1875 425.394 92.9849C425.19 92.7823 424.783 92.7823 424.579 92.7823C424.376 92.7823 424.376 92.7823 424.376 92.7823C424.376 92.7823 424.376 92.7823 424.172 92.7823L423.357 93.1875C422.746 93.3902 422.135 93.7954 421.524 93.9981C420.302 94.606 419.08 95.0112 417.858 95.2139C415.413 95.8218 412.765 95.8218 410.321 95.2139C409.099 94.8086 407.673 93.7954 407.266 92.377C407.062 91.5665 407.266 90.7559 407.673 90.148C407.673 89.9454 407.877 89.9454 408.081 89.7428C408.081 89.7428 408.081 89.7428 408.284 89.5401L408.488 89.3375L409.506 89.1349L409.71 88.9322C409.71 88.9322 409.506 88.9322 409.506 88.7296C409.099 88.527 408.692 88.527 408.081 88.3243C407.47 88.1217 406.655 87.7164 406.247 87.3112C405.636 86.9059 405.229 86.5006 404.822 85.8927C404.414 85.2848 404.211 84.6769 404.007 83.8664C404.007 83.0559 404.007 82.448 404.211 81.8401C404.618 80.6243 405.025 79.6111 405.84 78.5979C406.655 77.7874 407.47 77.1795 408.284 76.5716C409.914 75.5584 411.543 75.3558 412.765 75.3558C413.988 75.3558 414.599 75.5584 414.599 75.7611Z" fill="white"/>
<path d="M351.252 239.084C351.252 237.26 351.048 237.665 353.289 237.462C355.529 237.26 359.807 237.462 363.27 237.462C367.14 237.462 371.824 238.273 374.065 238.07C375.083 237.868 375.083 237.868 375.083 239.084C375.083 240.299 374.88 240.502 373.658 240.299C371.417 240.097 366.732 240.705 363.066 240.705C360.214 240.705 357.566 239.894 355.529 239.894C353.492 239.691 351.252 240.097 351.252 239.084Z" fill="white"/>
<path d="M425.19 247.797C424.987 245.973 424.987 246.378 428.449 246.176C431.912 245.77 438.838 245.973 444.133 245.973C450.448 245.973 457.577 246.784 461.447 246.378C463.077 246.176 463.077 246.176 463.077 247.392C463.077 248.607 462.873 248.81 460.836 248.607C457.373 248.607 450.04 249.013 444.133 249.215C439.449 249.215 435.579 248.607 432.116 248.607C428.653 248.607 425.19 249.013 425.19 247.797Z" fill="white"/>
<defs>
<filter id="filter0_d" x="37.457" y="4.12836" width="135.264" height="72.1788" filterUnits="userSpaceOnUse" color-interpolation-filters="sRGB">
<feFlood flood-opacity="0" result="BackgroundImageFix"/>
<feColorMatrix in="SourceAlpha" type="matrix" values="0 0 0 0 0 0 0 0 0 0 0 0 0 0 0 0 0 0 127 0"/>
<feOffset dx="2" dy="2"/>
<feGaussianBlur stdDeviation="3"/>
<feColorMatrix type="matrix" values="0 0 0 0 0 0 0 0 0 0 0 0 0 0 0 0 0 0 0.4 0"/>
<feBlend mode="normal" in2="BackgroundImageFix" result="effect1_dropShadow"/>
<feBlend mode="normal" in="SourceGraphic" in2="effect1_dropShadow" result="shape"/>
</filter>
<filter id="filter1_d" x="262.241" y="0.997986" width="204.912" height="72.6888" filterUnits="userSpaceOnUse" color-interpolation-filters="sRGB">
<feFlood flood-opacity="0" result="BackgroundImageFix"/>
<feColorMatrix in="SourceAlpha" type="matrix" values="0 0 0 0 0 0 0 0 0 0 0 0 0 0 0 0 0 0 127 0"/>
<feOffset dx="2" dy="2"/>
<feGaussianBlur stdDeviation="3"/>
<feColorMatrix type="matrix" values="0 0 0 0 0 0 0 0 0 0 0 0 0 0 0 0 0 0 0.4 0"/>
<feBlend mode="normal" in2="BackgroundImageFix" result="effect1_dropShadow"/>
<feBlend mode="normal" in="SourceGraphic" in2="effect1_dropShadow" result="shape"/>
</filter>
</defs>
</svg>
