<svg width="20" height="12" viewBox="0 0 20 12" fill="none" xmlns="http://www.w3.org/2000/svg">
<path d="M19.1071 11.1825L9.91992 1.61253L0.732777 11.1825" stroke="white" stroke-width="2" stroke-linejoin="round"/>
</svg>
